id,first_name,last_name,email,job
1,Wallache,Argue,wargue0@mashable.com,5
2,Janos,Morrilly,jmorrilly1@ask.com,7
3,Joete,Remirez,jremirez2@linkedin.com,12
4,Holly,Weatherhead,hweatherhead3@house.gov,8
5,Bee,Swyndley,bswyndley4@merriam-webster.com,4
6,Katrina,Luggar,kluggar5@salon.com,20
7,Lanny,Newitt,lnewitt6@qq.com,10
8,Trace,Gammel,tgammel7@ibm.com,18
9,Gilemette,Hatje,ghatje8@joomla.org,8
10,Nikolos,Bedbury,nbedbury9@about.me,2
11,Skipton,Paiton,spaitona@sogou.com,11
12,Peggy,Parcell,pparcellb@prweb.com,6
13,Mycah,Garmanson,mgarmansonc@gmpg.org,16
14,Emelina,Gynne,egynned@nasa.gov,3
15,Moore,Klewi,mklewie@gnu.org,20
16,Lana,Toulson,ltoulsonf@mysql.com,15
17,Josefa,Guerreru,jguerrerug@forbes.com,1
18,Jeth,Chanson,jchansonh@thetimes.co.uk,20
19,Janek,Caso,jcasoi@dailymotion.com,2
20,Shanie,Stancer,sstancerj@ask.com,11
21,Shayla,Leal,slealk@adobe.com,8
22,Devonne,Greatbanks,dgreatbanksl@diigo.com,20
23,Torrence,Carwardine,tcarwardinem@gnu.org,14
24,Mannie,Borit,mboritn@miibeian.gov.cn,3
25,Myrvyn,Halwill,mhalwillo@ow.ly,19
26,Delano,Dillamore,ddillamorep@ftc.gov,16
27,Loralyn,Lethley,llethleyq@sphinn.com,2
28,Katti,Haighton,khaightonr@house.gov,16
29,Imelda,Sherwell,isherwells@vistaprint.com,19
30,Beale,Leap,bleapt@flickr.com,16
31,Latashia,Villaron,lvillaronu@gmpg.org,12
32,Carlota,Gaskoin,cgaskoinv@privacy.gov.au,19
33,Clarke,Tann,ctannw@woothemes.com,15
34,Lawry,Sunner,lsunnerx@nsw.gov.au,2
35,Reuven,Hingeley,rhingeleyy@odnoklassniki.ru,8
36,Violante,Tenant,vtenantz@flickr.com,12
37,Joycelin,Benasik,jbenasik10@reverbnation.com,5
38,Greta,Kienle,gkienle11@eepurl.com,16
39,Olin,Simnor,osimnor12@yandex.ru,8
40,Eleonora,Dinsey,edinsey13@google.ru,10
41,Frederik,Clampton,fclampton14@nymag.com,19
42,Shawn,Jurisic,sjurisic15@soundcloud.com,15
43,Jannel,Padbery,jpadbery16@mapquest.com,10
44,Farley,Stanyland,fstanyland17@phpbb.com,16
45,Jordon,Bibb,jbibb18@forbes.com,
46,Dillie,Acedo,dacedo19@irs.gov,18
47,Emmit,Banck,ebanck1a@goo.gl,
48,Blaine,Abramzon,babramzon1b@quantcast.com,4
49,Glenda,Skypp,gskypp1c@ft.com,18
50,Cull,Bonwell,cbonwell1d@scientificamerican.com,13
51,Nikki,Hainsworth,nhainsworth1e@angelfire.com,11
52,Kanya,Mamwell,kmamwell1f@cbc.ca,10
53,Hendrick,Cornu,hcornu1g@addthis.com,1
54,Val,Norledge,vnorledge1h@google.com.br,17
55,Leticia,Pickersgill,lpickersgill1i@addthis.com,
56,Jessee,Cresser,jcresser1j@live.com,13
57,Yolane,Latore,ylatore1k@economist.com,1
58,Darby,Blampied,dblampied1l@webnode.com,10
59,Cariotta,Cranmer,ccranmer1m@github.io,4
60,Abdul,Ayer,aayer1n@netvibes.com,20
61,Johnna,Johanning,jjohanning1o@slate.com,8
62,Edita,Yarwood,eyarwood1p@huffingtonpost.com,17
63,Gabrila,Timewell,gtimewell1q@seattletimes.com,4
64,Atalanta,Letham,aletham1r@va.gov,5
65,Lydon,Clavey,lclavey1s@msu.edu,4
66,Corrie,Mattaus,cmattaus1t@kickstarter.com,20
67,Gianna,Belverstone,gbelverstone1u@csmonitor.com,6
68,Arly,Teesdale,ateesdale1v@e-recht24.de,11
69,Abe,Keesman,akeesman1w@bloomberg.com,4
70,Joya,Canavan,jcanavan1x@utexas.edu,9
71,Marv,Lunk,mlunk1y@mysql.com,2
72,Libbi,Tourmell,ltourmell1z@ucla.edu,20
73,Constance,Stollmeyer,cstollmeyer20@seattletimes.com,7
74,Kariotta,Elsy,kelsy21@scribd.com,1
75,Toddie,Tysack,ttysack22@smugmug.com,19
76,Pattie,Till,ptill23@vinaora.com,13
77,Shandra,Stannas,sstannas24@theatlantic.com,14
78,Brnaba,Puvia,bpuvia25@soup.io,3
79,Michael,Adamou,madamou26@ft.com,5
80,Lemuel,Beininck,lbeininck27@google.com,18
81,Kimberly,McGrey,kmcgrey28@istockphoto.com,2
82,Drew,Chimienti,dchimienti29@unesco.org,16
83,Kelsey,Blum,kblum2a@yahoo.com,10
84,Kristi,Cassam,kcassam2b@cornell.edu,9
85,Marina,Cleland,mcleland2c@zimbio.com,8
86,Carena,Bartosiak,cbartosiak2d@java.com,15
87,Oby,Petley,opetley2e@umich.edu,17
88,Orlando,Feasby,ofeasby2f@nih.gov,9
89,Sandie,Bengle,sbengle2g@amazon.de,10
90,Margi,Ferrulli,mferrulli2h@typepad.com,16
91,Mel,Jatczak,mjatczak2i@hibu.com,17
92,Hans,Belmont,hbelmont2j@meetup.com,
93,Gideon,Burns,gburns2k@ihg.com,
94,Arabela,Sweating,asweating2l@virginia.edu,
95,Darrell,Donnel,ddonnel2m@mac.com,6
96,Maureene,Knowlson,mknowlson2n@biblegateway.com,16
97,Rena,Baddow,rbaddow2o@webs.com,7
98,Shirline,Highway,shighway2p@intel.com,5
99,Janot,Hulles,jhulles2q@lulu.com,10
100,Ruddie,Corsan,rcorsan2r@reuters.com,5
101,Gaven,Valti,gvalti2s@bravesites.com,17
102,Ilka,Dorr,idorr2t@salon.com,7
103,Elsa,Antonietti,eantonietti2u@twitter.com,13
104,Sybyl,Loads,sloads2v@blog.com,16
105,Georgianna,McGeechan,gmcgeechan2w@uol.com.br,18
106,Charmaine,Mourgue,cmourgue2x@mail.ru,12
107,Harman,Nunan,hnunan2y@hostgator.com,12
108,Herby,Lipyeat,hlipyeat2z@auda.org.au,4
109,Kay,Brodbin,kbrodbin30@weather.com,14
110,Elnore,Petrelli,epetrelli31@e-recht24.de,
111,Rory,MacNulty,rmacnulty32@github.io,3
112,Jarvis,Vedmore,jvedmore33@patch.com,14
113,Tobe,Spancock,tspancock34@istockphoto.com,19
114,Greg,MacCorley,gmaccorley35@reverbnation.com,13
115,Madge,Threadgould,mthreadgould36@state.gov,12
116,Laurella,Tixier,ltixier37@exblog.jp,17
117,Ivett,Kift,ikift38@studiopress.com,11
118,Paddy,Mougel,pmougel39@amazonaws.com,4
119,Jennica,Crockatt,jcrockatt3a@yale.edu,13
120,Derek,Brinicombe,dbrinicombe3b@gizmodo.com,5
121,Cassaundra,Fury,cfury3c@furl.net,15
122,Nessy,Widdecombe,nwiddecombe3d@purevolume.com,9
123,Saraann,Wieprecht,swieprecht3e@upenn.edu,14
124,Wes,Heskins,wheskins3f@sakura.ne.jp,16
125,Rennie,Allsupp,rallsupp3g@ucla.edu,17
126,Kirsten,Tedahl,ktedahl3h@wiley.com,2
127,Ewen,Killerby,ekillerby3i@cnbc.com,17
128,Mathe,Lubman,mlubman3j@usa.gov,
129,Tomkin,Redborn,tredborn3k@issuu.com,4
130,Angil,Simeone,asimeone3l@dion.ne.jp,3
131,Harrietta,Dorrance,hdorrance3m@cbslocal.com,14
132,Beitris,Dagnan,bdagnan3n@kickstarter.com,15
133,Jeremie,Roubottom,jroubottom3o@who.int,10
134,Oralia,Yeeles,oyeeles3p@plala.or.jp,13
135,Darline,Ibbotson,dibbotson3q@harvard.edu,8
136,Herold,Parrington,hparrington3r@deliciousdays.com,9
137,Bunnie,Simoncello,bsimoncello3s@columbia.edu,7
138,Belva,Winchester,bwinchester3t@freewebs.com,14
139,Mordy,Bauman,mbauman3u@360.cn,2
140,Herta,Pestor,hpestor3v@accuweather.com,12
141,Cullan,Gandley,cgandley3w@tamu.edu,14
142,Edmund,Mansour,emansour3x@howstuffworks.com,8
143,Zelda,Donke,zdonke3y@geocities.com,9
144,Emmey,Redborn,eredborn3z@theglobeandmail.com,13
145,Morgan,Francescone,mfrancescone40@wisc.edu,15
146,Quintus,Greneham,qgreneham41@imdb.com,3
147,Frasco,Titley,ftitley42@woothemes.com,15
148,Trixy,Rummery,trummery43@flickr.com,18
149,Amelie,Vidineev,avidineev44@independent.co.uk,18
150,Griselda,Klessmann,gklessmann45@deviantart.com,5
151,Udell,Mott,umott46@mail.ru,11
152,Lazare,Gascoigne,lgascoigne47@unblog.fr,3
153,Beatriz,Elland,belland48@weibo.com,3
154,Ronnie,Rapa,rrapa49@sitemeter.com,12
155,Maisey,Ovett,movett4a@alexa.com,19
156,Nikola,Phlippi,nphlippi4b@google.de,18
157,Ringo,Dessent,rdessent4c@huffingtonpost.com,3
158,Yuma,Stedmond,ystedmond4d@macromedia.com,8
159,Auguste,Sirman,asirman4e@spiegel.de,9
160,Cort,Kyffin,ckyffin4f@fda.gov,8
161,Levey,Burford,lburford4g@nbcnews.com,11
162,Oralia,Pendred,opendred4h@washington.edu,7
163,Elyn,Bolsover,ebolsover4i@tmall.com,14
164,Davey,Rosendahl,drosendahl4j@state.gov,
165,Egon,Neighbour,eneighbour4k@wisc.edu,1
166,Jamie,Pollicote,jpollicote4l@yolasite.com,14
167,Adina,Dickman,adickman4m@toplist.cz,17
168,Kenny,Ninnoli,kninnoli4n@liveinternet.ru,
169,Zeke,Colbourn,zcolbourn4o@loc.gov,14
170,Genni,Gristock,ggristock4p@globo.com,11
171,Ash,Swinnerton,aswinnerton4q@linkedin.com,5
172,Julie,Fibbitts,jfibbitts4r@zdnet.com,3
173,Abbey,Josskoviz,ajosskoviz4s@google.com.br,
174,Dorothee,Charity,dcharity4t@addthis.com,5
175,Burg,Meigh,bmeigh4u@google.ca,6
176,Nani,Limb,nlimb4v@cam.ac.uk,
177,Farlie,Yitzhakof,fyitzhakof4w@sphinn.com,5
178,Grayce,Lindores,glindores4x@mlb.com,9
179,Huntley,Gaisford,hgaisford4y@pcworld.com,5
180,Sherm,Nendick,snendick4z@over-blog.com,12
181,Dag,Zorzetti,dzorzetti50@cnn.com,5
182,Andros,Cawthorn,acawthorn51@seattletimes.com,3
183,Reinold,Dermot,rdermot52@shop-pro.jp,19
184,Mirna,Miskimmon,mmiskimmon53@hhs.gov,11
185,Cindi,Minet,cminet54@msu.edu,20
186,Karlens,Madgett,kmadgett55@boston.com,18
187,Ilaire,Rojel,irojel56@facebook.com,12
188,Blake,Devote,bdevote57@liveinternet.ru,20
189,Aeriel,Goodayle,agoodayle58@macromedia.com,4
190,Jo-ann,Cuttin,jcuttin59@wikispaces.com,12
191,Randy,Varga,rvarga5a@com.com,16
192,Sonia,Keedy,skeedy5b@phpbb.com,9
193,Cherish,Radbond,cradbond5c@plala.or.jp,15
194,Kaylil,Pryde,kpryde5d@gov.uk,15
195,Benjy,Tondeur,btondeur5e@ucla.edu,1
196,Isa,Doorbar,idoorbar5f@discuz.net,
197,Maury,Kaveney,mkaveney5g@google.de,17
198,Thorvald,Sutherel,tsutherel5h@weebly.com,7
199,Duff,Latehouse,dlatehouse5i@imageshack.us,5
200,Rosina,Hendriksen,rhendriksen5j@jimdo.com,14
